raw 데이터 탐색
…
# 연령대별 최고 매출 TOP5 대분류 제품군 담고 있는 dataframe 생성
( ageamt_top_clac <- 
    clnt_proorder %>% 
      group_by(CLNT_AGE, CLAC1_NM) %>% 
      summarise(SALES = sum(PD_BUY_TOT)) %>% 
      arrange(CLNT_AGE, desc(SALES)) %>% 
      group_by(CLNT_AGE) %>% 
      slice(1:5) )

## # A tibble: 40 x 3
## # Groups:   CLNT_AGE [8]
##    CLNT_AGE CLAC1_NM             SALES
##       <dbl> <chr>                <dbl>
##  1       10 스포츠패션       175165490
##  2       10 패션잡화         153955210
##  3       10 화장품/뷰티케어  118852780
##  4       10 남성의류          32652120
##  5       10 여성의류          24133010
##  6       20 패션잡화        5032338120
##  7       20 화장품/뷰티케어 4022659410
##  8       20 스포츠패션      2587221530
##  9       20 여성의류        1826973990
## 10       20 남성의류        1191419420
## # ... with 30 more rows
…
# 연령대별 최다 판매 TOP3 대분류 제품군 담고 있는 dataframe 생성
( agecnt_top_clac <- 
    clnt_proorder %>% 
      group_by(CLNT_AGE, CLAC1_NM) %>% 
      summarise(SALES = sum(PD_BUY_CT)) %>% 
      arrange(CLNT_AGE, desc(SALES)) %>% 
      group_by(CLNT_AGE) %>% 
      slice(1:3) )

## # A tibble: 24 x 3
## # Groups:   CLNT_AGE [8]
##    CLNT_AGE CLAC1_NM          SALES
##       <dbl> <chr>             <dbl>
##  1       10 스포츠패션         3560
##  2       10 화장품/뷰티케어    3145
##  3       10 패션잡화           1614
##  4       20 화장품/뷰티케어   93573
##  5       20 스포츠패션        45399
##  6       20 패션잡화          37893
##  7       30 화장품/뷰티케어  219335
##  8       30 여성의류         204293
##  9       30 속옷/양말/홈웨어 196597
## 10       40 여성의류         255379
## # ... with 14 more rows
…
# 연령대별 최고 매출 TOP5 브랜드 담고 있는 dataframe 생성
( ageamt_top_brand <- 
    clnt_proorder %>% 
      group_by(CLNT_AGE, PD_BRA_NM) %>% 
      summarise(SALES = sum(PD_BUY_TOT)) %>% 
      arrange(CLNT_AGE, desc(SALES)) %>% 
      group_by(CLNT_AGE) %>% 
      slice(1:5) )

## # A tibble: 40 x 3
## # Groups:   CLNT_AGE [8]
##    CLNT_AGE PD_BRA_NM              SALES
##       <dbl> <chr>                  <dbl>
##  1       10 나이키              35977760
##  2       10 메트로시티          16325820
##  3       10 나이키(의류)        14717200
##  4       10 메트로시티(주얼리)  13598000
##  5       10 나스                12689000
##  6       20 나이키             465867940
##  7       20 프라다             443150620
##  8       20 LG전자             409510680
##  9       20 조르지오 아르마니  326239000
## 10       20 입생로랑           321791400
## # ... with 30 more rows
…
# 일자별 매출액 dataframe 생성
( day_amt <- 
    sess_order %>%
    group_by(SESS_DT) %>%
    summarise(TOT_AMT_DAY = sum(PD_BUY_TOT)) )

## # A tibble: 183 x 2
##    SESS_DT    TOT_AMT_DAY
##    <date>           <dbl>
##  1 2018-04-01  1836408880
##  2 2018-04-02  1606900760
##  3 2018-04-03  1404617580
##  4 2018-04-04  1323898700
##  5 2018-04-05  1262985970
##  6 2018-04-06  1106984430
##  7 2018-04-07  1004686240
##  8 2018-04-08  1304491760
##  9 2018-04-09  1441855200
## 10 2018-04-10  1218895650
## # ... with 173 more rows
…
# 일자별 매출량 dataframe 생성
( day_cnt <- 
    sess_order %>% 
    group_by(SESS_DT) %>% 
    summarise(TOT_CNT_DAY = sum(PD_BUY_CT)) )

## # A tibble: 183 x 2
##    SESS_DT    TOT_CNT_DAY
##    <date>           <dbl>
##  1 2018-04-01       36284
##  2 2018-04-02       34400
##  3 2018-04-03       32932
##  4 2018-04-04       30662
##  5 2018-04-05       31302
##  6 2018-04-06       23177
##  7 2018-04-07       21892
##  8 2018-04-08       28251
##  9 2018-04-09       31742
## 10 2018-04-10       26791
## # ... with 173 more rows
…
브랜드별 특징

# 최고 매출 브랜드 dataframe 생성
( amt_top_brand <- 
    prod_order %>% 
      group_by(PD_BRA_NM) %>% 
      summarise(SALES = sum(PD_BUY_TOT)) %>% 
      arrange(desc(SALES)) )

## # A tibble: 13,220 x 2
##    PD_BRA_NM         SALES
##    <chr>             <dbl>
##  1 LG전자       7777364661
##  2 정관장       4346813170
##  3 나이키       3139784550
##  4 프라다       3013931110
##  5 삼성전자     2997201810
##  6 다이슨       1925193500
##  7 빈폴레이디스 1805578240
##  8 에고이스트   1524920040
##  9 설화수       1372381000
## 10 입생로랑     1310801700
## # ... with 13,210 more rows
…
# 최다 판매 브랜드 dataframe 생성
( cnt_top_brand <-
    prod_order %>% 
    group_by(PD_BRA_NM) %>% 
    summarise(SALES = sum(PD_BUY_CT)) %>% 
    arrange(desc(SALES)) )

## # A tibble: 13,220 x 2
##    PD_BRA_NM      SALES
##    <chr>          <dbl>
##  1 지오다노       76900
##  2 나이키         49033
##  3 정관장         34745
##  4 한샘           34287
##  5 에이치커넥트   33078
##  6 탑텐           32293
##  7 크록스         30306
##  8 가쯔           25993
##  9 입생로랑       25889
## 10 아디다스(의류) 25504
## # ... with 13,210 more rows
…
# 금액 Box Plot을 확인한 결과, 이상치가 많음을 확인했다.

# 한 세션에서 구매한 총 금액의 평균 dataframe 생성
( meanamt_sess <- 
    sess_order %>% 
    group_by(SESS_ID) %>% 
    summarise(MEANAMT = mean(PD_BUY_TOT)) )

## # A tibble: 2,037,571 x 2
##    SESS_ID MEANAMT
##      <dbl>   <dbl>
##  1      26   49000
##  2      76   80000
##  3      84   35000
##  4     112   29000
##  5     116   69000
##  6     165  160000
##  7     187   60000
##  8     195   22625
##  9     206   59000
## 10     229   17900
## # ... with 2,037,561 more rows

# 모든 세션의 구매총액의 평균금액
mean(meanamt_sess$MEANAMT)  # 64069.77

## [1] 64069.77

# 고객별 6개월 구매 총 금액 평균 dataframe 생성
( mean6amt_clnt <-
    df_order %>% 
    group_by(CLNT_ID) %>% 
    summarise(MEANAMT = mean(PD_BUY_TOT)) )

## # A tibble: 671,679 x 2
##    CLNT_ID MEANAMT
##      <dbl>   <dbl>
##  1       8  38000 
##  2      14  34900 
##  3      32  15360 
##  4      56   7933.
##  5      58  21850 
##  6      59  18320 
##  7      63 121248.
##  8      64  30900 
##  9      68  66833.
## 10      71  52167.
## # ... with 671,669 more rows
…
# 모든 상품을 대상으로 구매수량을 살펴보면,
# 한 고객이 한 번 주문할 때, 같은 종류의 물품을 2개 이상 구매할 때부터 이상치로 나타난다.

# 한 고객이 6개월동안 구매한 총 구매수량 dataframe 생성
( cnt6_clnt <-
    df_order %>% 
    group_by(CLNT_ID) %>% 
    summarise(TOTCNT = sum(PD_BUY_CT)) )

## # A tibble: 671,679 x 2
##    CLNT_ID TOTCNT
##      <dbl>  <dbl>
##  1       8      2
##  2      14      2
##  3      32      5
##  4      56      3
##  5      58      6
##  6      59      6
##  7      63     11
##  8      64      2
##  9      68      6
## 10      71      3
## # ... with 671,669 more rows
…
